%!PS-Adobe-3.0 EPSF-3.0
%%BoundingBox: 26 578 395 834
%%Title: aufzugsz
%%CreationDate: Wed Mar 11 15:58:59 2009
%%Creator: Tgif-4.1.45-QPL written by William Chia-Wei Cheng (bill.cheng@acm.org)
%%ProducedBy: (unknown)
%%Pages: 1
%%DocumentFonts: (atend)
%%EndComments
%%BeginProlog

/tgifdict 51 dict def
tgifdict begin

/TGMAX
 { exch dup 3 1 roll exch dup 3 1 roll gt { pop } { exch pop } ifelse
 } def
/TGMIN
 { exch dup 3 1 roll exch dup 3 1 roll lt { pop } { exch pop } ifelse
 } def
/TGSW { stringwidth pop } def

/bd { bind def } bind def

/GS { gsave } bd
/GR { grestore } bd
/NP { newpath } bd
/CP { closepath } bd
/CHP { charpath } bd
/CT { curveto } bd
/L { lineto } bd
/RL { rlineto } bd
/M { moveto } bd
/RM { rmoveto } bd
/S { stroke } bd
/F { fill } bd
/TR { translate } bd
/RO { rotate } bd
/SC { scale } bd
/MU { mul } bd
/DI { div } bd
/DU { dup } bd
/NE { neg } bd
/AD { add } bd
/SU { sub } bd
/PO { pop } bd
/EX { exch } bd
/CO { concat } bd
/CL { clip } bd
/EC { eoclip } bd
/EF { eofill } bd
/IM { image } bd
/IMM { imagemask } bd
/ARY { array } bd
/SG { setgray } bd
/RG { setrgbcolor } bd
/SD { setdash } bd
/W { setlinewidth } bd
/SM { setmiterlimit } bd
/SLC { setlinecap } bd
/SLJ { setlinejoin } bd
/SH { show } bd
/FF { findfont } bd
/MS { makefont setfont } bd
/AR { arcto 4 {pop} repeat } bd
/CURP { currentpoint } bd
/FLAT { flattenpath strokepath clip newpath } bd
/TGSM { tgiforigctm setmatrix } def
/TGRM { savematrix setmatrix } def

end

%%EndProlog
%%Page: 1 1

%%PageBoundingBox: 26 578 395 834
tgifdict begin
/tgifsavedpage save def

1 SM
1 W

0 SG

72 0 MU 72 11.602 MU TR
72 128 DI 100.000 MU 100 DI DU NE SC

GS

/tgiforigctm matrix currentmatrix def

% TEXT
NP
0 SG
   GS
      1 W
      346 238 M
      GS
            0 SG
            /Helvetica-Bold FF [34 0 0 -34 0 0] MS
            (n=3) SH
      GR
   GR

% BOX
0 SG
GS
   10 SM
   GS
      NP 150 250 M 200 250 L 200 300 L 150 300 L CP
      S
   GR
GR

% BOX
0 SG
GS
   10 SM
   GS
      NP 150 300 M 200 300 L 200 350 L 150 350 L CP
      S
   GR
GR

% BOX
0 SG
GS
   10 SM
   GS
      NP 150 350 M 200 350 L 200 400 L 150 400 L CP
      S
   GR
GR

% BOX
0 SG
GS
   10 SM
   GS
      NP 250 250 M 300 250 L 300 300 L 250 300 L CP
      S
   GR
GR

% BOX
0 SG
GS
   10 SM
   GS
      NP 250 300 M 300 300 L 300 350 L 250 350 L CP
      S
   GR
GR

% BOX
0 SG
GS
   10 SM
   GS
      NP 250 350 M 300 350 L 300 400 L 250 400 L CP
      S
   GR
GR

% BOX
0 SG
GS
   10 SM
   GS
      NP 350 250 M 400 250 L 400 300 L 350 300 L CP
      S
   GR
GR

% BOX
0 SG
GS
   10 SM
   GS
      NP 350 300 M 400 300 L 400 350 L 350 350 L CP
      S
   GR
GR

% BOX
0 SG
GS
   10 SM
   GS
      NP 350 350 M 400 350 L 400 400 L 350 400 L CP
      S
   GR
GR

% BOX
0 SG
GS
   10 SM
   GS
      NP 450 250 M 500 250 L 500 300 L 450 300 L CP
      S
   GR
GR

% BOX
0 SG
GS
   10 SM
   GS
      NP 450 300 M 500 300 L 500 350 L 450 350 L CP
      S
   GR
GR

% BOX
0 SG
GS
   10 SM
   GS
      NP 450 350 M 500 350 L 500 400 L 450 400 L CP
      S
   GR
GR

% BOX
0 SG
GS
   10 SM
   GS
      NP 550 250 M 600 250 L 600 300 L 550 300 L CP
      S
   GR
GR

% BOX
0 SG
GS
   10 SM
   GS
      NP 550 300 M 600 300 L 600 350 L 550 350 L CP
      S
   GR
GR

% BOX
0 SG
GS
   10 SM
   GS
      NP 550 350 M 600 350 L 600 400 L 550 400 L CP
      S
   GR
GR

% TEXT
NP
0 SG
   GS
      1 W
      340 442 M
      GS
            0.000 0.000 0.753 RG
            /Helvetica-Bold FF [34 0 0 -34 0 0] MS
            (A) SH
          GS
            GS
              0 6 RM
              GS
                    0.000 0.000 0.753 RG
                    /Helvetica-Bold FF [20 0 0 -20 0 0] MS
                    (3) SH
              GR
            GR
          GR
            0
              0
                GS
                0
                    /Helvetica-Bold FF [20 0 0 -20 0 0] MS
                    (3) TGSW 
                AD
                GR
              TGMAX
            TGMAX
          0 RM
            0.000 0.000 0.753 RG
            /Helvetica-Bold FF [34 0 0 -34 0 0] MS
            (=5) SH
      GR
   GR

% POLY/OPEN-SPLINE
0.000 0.000 0.753 RG
GS
   NP
      250 350 M
      300 400 L
   TGSM
   2 W
   S
   1 W
GR

% POLY/OPEN-SPLINE
0.000 0.000 0.753 RG
GS
   NP
      250 400 M
      300 350 L
   TGSM
   2 W
   S
   1 W
GR

% POLY/OPEN-SPLINE
0.000 0.000 0.753 RG
GS
   NP
      350 300 M
      400 350 L
   TGSM
   2 W
   S
   1 W
GR

% POLY/OPEN-SPLINE
0.000 0.000 0.753 RG
GS
   NP
      350 350 M
      400 300 L
   TGSM
   2 W
   S
   1 W
GR

% POLY/OPEN-SPLINE
0.000 0.000 0.753 RG
GS
   NP
      450 250 M
      500 300 L
   TGSM
   2 W
   S
   1 W
GR

% POLY/OPEN-SPLINE
0.000 0.000 0.753 RG
GS
   NP
      450 300 M
      500 250 L
   TGSM
   2 W
   S
   1 W
GR

% POLY/OPEN-SPLINE
0.000 0.000 0.753 RG
GS
   NP
      550 250 M
      600 300 L
   TGSM
   2 W
   S
   1 W
GR

% POLY/OPEN-SPLINE
0.000 0.000 0.753 RG
GS
   NP
      550 300 M
      600 250 L
   TGSM
   2 W
   S
   1 W
GR

% POLY/OPEN-SPLINE
0.000 0.000 0.753 RG
GS
   NP
      550 350 M
      600 400 L
   TGSM
   2 W
   S
   1 W
GR

% POLY/OPEN-SPLINE
0.000 0.000 0.753 RG
GS
   NP
      550 400 M
      600 350 L
   TGSM
   2 W
   S
   1 W
GR

% BOX
0 SG
GS
   10 SM
   GS
      NP 450 50 M 500 50 L 500 100 L 450 100 L CP
      S
   GR
GR

% BOX
0 SG
GS
   10 SM
   GS
      NP 450 100 M 500 100 L 500 150 L 450 150 L CP
      S
   GR
GR

% BOX
0 SG
GS
   10 SM
   GS
      NP 550 50 M 600 50 L 600 100 L 550 100 L CP
      S
   GR
GR

% BOX
0 SG
GS
   10 SM
   GS
      NP 550 100 M 600 100 L 600 150 L 550 150 L CP
      S
   GR
GR

% BOX
0 SG
GS
   10 SM
   GS
      NP 650 50 M 700 50 L 700 100 L 650 100 L CP
      S
   GR
GR

% BOX
0 SG
GS
   10 SM
   GS
      NP 650 100 M 700 100 L 700 150 L 650 150 L CP
      S
   GR
GR

% TEXT
NP
0 SG
   GS
      1 W
      546 36 M
      GS
            0 SG
            /Helvetica-Bold FF [34 0 0 -34 0 0] MS
            (n=2) SH
      GR
   GR

% TEXT
NP
0 SG
   GS
      1 W
      540 190 M
      GS
            0.000 0.000 0.753 RG
            /Helvetica-Bold FF [34 0 0 -34 0 0] MS
            (A) SH
          GS
            GS
              0 4 RM
              GS
                  GS
                    GS
                      0 7 RM
                      GS
                            0.000 0.000 0.753 RG
                            /Helvetica-Bold FF [20 0 0 -20 0 0] MS
                            (2) SH
                      GR
                    GR
                  GR
                    0
                      0
                        GS
                        0
                            /Helvetica-Bold FF [20 0 0 -20 0 0] MS
                            (2) TGSW 
                        AD
                        GR
                      TGMAX
                    TGMAX
                  0 RM
              GR
            GR
          GR
            0
              0
                GS
                0
                    0
                AD
                  GS
                  0
                    0
                      0
                        GS
                        0
                            /Helvetica-Bold FF [20 0 0 -20 0 0] MS
                            (2) TGSW 
                        AD
                        GR
                      TGMAX
                    TGMAX
                  TGMAX
                  GR
                AD
                    0
                AD
                GR
              TGMAX
            TGMAX
          0 RM
            0.000 0.000 0.753 RG
            /Helvetica-Bold FF [34 0 0 -34 0 0] MS
            (=3) SH
      GR
   GR

% POLY/OPEN-SPLINE
0.000 0.000 0.753 RG
GS
   NP
      550 100 M
      600 150 L
   TGSM
   2 W
   S
   1 W
GR

% POLY/OPEN-SPLINE
0.000 0.000 0.753 RG
GS
   NP
      550 150 M
      600 100 L
   TGSM
   2 W
   S
   1 W
GR

% POLY/OPEN-SPLINE
0.000 0.000 0.753 RG
GS
   NP
      650 50 M
      700 100 L
   TGSM
   2 W
   S
   1 W
GR

% POLY/OPEN-SPLINE
0.000 0.000 0.753 RG
GS
   NP
      650 100 M
      700 50 L
   TGSM
   2 W
   S
   1 W
GR

% BOX
0 SG
GS
   10 SM
   GS
      NP 50 100 M 100 100 L 100 150 L 50 150 L CP
      S
   GR
GR

% BOX
0 SG
GS
   10 SM
   GS
      NP 150 100 M 200 100 L 200 150 L 150 150 L CP
      S
   GR
GR

% TEXT
NP
0 SG
   GS
      1 W
      95 85 M
      GS
            0 SG
            /Helvetica-Bold FF [34 0 0 -34 0 0] MS
            (n=1) SH
      GR
   GR

% TEXT
NP
0 SG
   GS
      1 W
      92 185 M
      GS
            0.000 0.000 0.753 RG
            /Helvetica-Bold FF [34 0 0 -34 0 0] MS
            (A) SH
          GS
            GS
              0 6 RM
              GS
                    0.000 0.000 0.753 RG
                    /Helvetica-Bold FF [20 0 0 -20 0 0] MS
                    (1) SH
              GR
            GR
          GR
            0
              0
                GS
                0
                    /Helvetica-Bold FF [20 0 0 -20 0 0] MS
                    (1) TGSW 
                AD
                GR
              TGMAX
            TGMAX
          0 RM
            0.000 0.000 0.753 RG
            /Helvetica-Bold FF [34 0 0 -34 0 0] MS
            (=2) SH
      GR
   GR

% POLY/OPEN-SPLINE
0.000 0.000 0.753 RG
GS
   NP
      150 100 M
      200 150 L
   TGSM
   2 W
   S
   1 W
GR

% POLY/OPEN-SPLINE
0.000 0.000 0.753 RG
GS
   NP
      150 150 M
      200 100 L
   TGSM
   2 W
   S
   1 W
GR

GR
tgifsavedpage restore
end
showpage

%%Trailer
%MatchingCreationDate: Wed Mar 11 15:58:59 2009
%%DocumentFonts: Helvetica-Bold
%%EOF
