%!PS-Adobe-3.0 EPSF-3.0
%%BoundingBox: 98 572 352 813
%%Title: pascal
%%CreationDate: Wed Mar 11 15:45:11 2009
%%Creator: Tgif-4.1.45-QPL written by William Chia-Wei Cheng (bill.cheng@acm.org)
%%ProducedBy: (unknown)
%%Pages: 1
%%DocumentFonts: (atend)
%%EndComments
%%BeginProlog

/tgifdict 53 dict def
tgifdict begin

/tgifarrowtipdict 8 dict def
tgifarrowtipdict /mtrx matrix put

/TGAT % tgifarrowtip
 { tgifarrowtipdict begin
      /dy exch def
      /dx exch def
      /h exch def
      /w exch def
      /y exch def
      /x exch def
      /savematrix mtrx currentmatrix def
      x y translate
      dy dx atan rotate
      0 0 moveto
      w neg h lineto
      w neg h neg lineto
      savematrix setmatrix
   end
 } def

/TGMAX
 { exch dup 3 1 roll exch dup 3 1 roll gt { pop } { exch pop } ifelse
 } def
/TGMIN
 { exch dup 3 1 roll exch dup 3 1 roll lt { pop } { exch pop } ifelse
 } def
/TGSW { stringwidth pop } def

/bd { bind def } bind def

/GS { gsave } bd
/GR { grestore } bd
/NP { newpath } bd
/CP { closepath } bd
/CHP { charpath } bd
/CT { curveto } bd
/L { lineto } bd
/RL { rlineto } bd
/M { moveto } bd
/RM { rmoveto } bd
/S { stroke } bd
/F { fill } bd
/TR { translate } bd
/RO { rotate } bd
/SC { scale } bd
/MU { mul } bd
/DI { div } bd
/DU { dup } bd
/NE { neg } bd
/AD { add } bd
/SU { sub } bd
/PO { pop } bd
/EX { exch } bd
/CO { concat } bd
/CL { clip } bd
/EC { eoclip } bd
/EF { eofill } bd
/IM { image } bd
/IMM { imagemask } bd
/ARY { array } bd
/SG { setgray } bd
/RG { setrgbcolor } bd
/SD { setdash } bd
/W { setlinewidth } bd
/SM { setmiterlimit } bd
/SLC { setlinecap } bd
/SLJ { setlinejoin } bd
/SH { show } bd
/FF { findfont } bd
/MS { makefont setfont } bd
/AR { arcto 4 {pop} repeat } bd
/CURP { currentpoint } bd
/FLAT { flattenpath strokepath clip newpath } bd
/TGSM { tgiforigctm setmatrix } def
/TGRM { savematrix setmatrix } def

end

%%EndProlog
%%Page: 1 1

%%PageBoundingBox: 98 572 352 813
tgifdict begin
/tgifsavedpage save def

1 SM
1 W

0 SG

72 0 MU 72 11.602 MU TR
72 128 DI 100.000 MU 100 DI DU NE SC

GS

/tgiforigctm matrix currentmatrix def

% TEXT
NP
0 SG
   GS
      1 W
      430 80 M
      GS
            0 SG
            /Helvetica FF [34 0 0 -34 0 0] MS
            (1) SH
      GR
   GR

% TEXT
NP
0 SG
   GS
      1 W
      481 182 M
      GS
            0 SG
            /Helvetica FF [34 0 0 -34 0 0] MS
            (1) SH
      GR
   GR

% TEXT
NP
0 SG
   GS
      1 W
      381 182 M
      GS
            0 SG
            /Helvetica FF [34 0 0 -34 0 0] MS
            (1) SH
      GR
   GR

% TEXT
NP
0 SG
   GS
      1 W
      356 232 M
      GS
            0 SG
            /Helvetica FF [34 0 0 -34 0 0] MS
            (1) SH
      GR
   GR

% TEXT
NP
0 SG
   GS
      1 W
      331 282 M
      GS
            0 SG
            /Helvetica FF [34 0 0 -34 0 0] MS
            (1) SH
      GR
   GR

% TEXT
NP
0 SG
   GS
      1 W
      306 332 M
      GS
            0 SG
            /Helvetica FF [34 0 0 -34 0 0] MS
            (1) SH
      GR
   GR

% TEXT
NP
0 SG
   GS
      1 W
      281 382 M
      GS
            0 SG
            /Helvetica FF [34 0 0 -34 0 0] MS
            (1) SH
      GR
   GR

% TEXT
NP
0 SG
   GS
      1 W
      256 432 M
      GS
            0 SG
            /Helvetica FF [34 0 0 -34 0 0] MS
            (1) SH
      GR
   GR

% TEXT
NP
0 SG
   GS
      1 W
      506 232 M
      GS
            0 SG
            /Helvetica FF [34 0 0 -34 0 0] MS
            (1) SH
      GR
   GR

% TEXT
NP
0 SG
   GS
      1 W
      531 282 M
      GS
            0 SG
            /Helvetica FF [34 0 0 -34 0 0] MS
            (1) SH
      GR
   GR

% TEXT
NP
0 SG
   GS
      1 W
      556 332 M
      GS
            0 SG
            /Helvetica FF [34 0 0 -34 0 0] MS
            (1) SH
      GR
   GR

% TEXT
NP
0 SG
   GS
      1 W
      581 382 M
      GS
            0 SG
            /Helvetica FF [34 0 0 -34 0 0] MS
            (1) SH
      GR
   GR

% TEXT
NP
0 SG
   GS
      1 W
      606 432 M
      GS
            0 SG
            /Helvetica FF [34 0 0 -34 0 0] MS
            (1) SH
      GR
   GR

% TEXT
NP
0 SG
   GS
      1 W
      431 183 M
      GS
            0 SG
            /Helvetica FF [34 0 0 -34 0 0] MS
            (2) SH
      GR
   GR

% TEXT
NP
0 SG
   GS
      1 W
      405 232 M
      GS
            0 SG
            /Helvetica FF [34 0 0 -34 0 0] MS
            (3) SH
      GR
   GR

% TEXT
NP
0 SG
   GS
      1 W
      456 232 M
      GS
            0 SG
            /Helvetica FF [34 0 0 -34 0 0] MS
            (3) SH
      GR
   GR

% TEXT
NP
0 SG
   GS
      1 W
      381 282 M
      GS
            0 SG
            /Helvetica FF [34 0 0 -34 0 0] MS
            (4) SH
      GR
   GR

% TEXT
NP
0 SG
   GS
      1 W
      481 282 M
      GS
            0 SG
            /Helvetica FF [34 0 0 -34 0 0] MS
            (4) SH
      GR
   GR

% TEXT
NP
0 SG
   GS
      1 W
      431 282 M
      GS
            0 SG
            /Helvetica FF [34 0 0 -34 0 0] MS
            (6) SH
      GR
   GR

% TEXT
NP
0 SG
   GS
      1 W
      356 332 M
      GS
            0 SG
            /Helvetica FF [34 0 0 -34 0 0] MS
            (5) SH
      GR
   GR

% TEXT
NP
0 SG
   GS
      1 W
      506 332 M
      GS
            0 SG
            /Helvetica FF [34 0 0 -34 0 0] MS
            (5) SH
      GR
   GR

% TEXT
NP
0 SG
   GS
      1 W
      397 332 M
      GS
            0 SG
            /Helvetica FF [34 0 0 -34 0 0] MS
            (10) SH
      GR
   GR

% TEXT
NP
0 SG
   GS
      1 W
      447 332 M
      GS
            0 SG
            /Helvetica FF [34 0 0 -34 0 0] MS
            (10) SH
      GR
   GR

% TEXT
NP
0 SG
   GS
      1 W
      406 132 M
      GS
            0 SG
            /Helvetica FF [34 0 0 -34 0 0] MS
            (1) SH
      GR
   GR

% TEXT
NP
0 SG
   GS
      1 W
      456 132 M
      GS
            0 SG
            /Helvetica FF [34 0 0 -34 0 0] MS
            (1) SH
      GR
   GR

% TEXT
NP
0 SG
   GS
      1 W
      331 382 M
      GS
            0 SG
            /Helvetica FF [34 0 0 -34 0 0] MS
            (6) SH
      GR
   GR

% TEXT
NP
0 SG
   GS
      1 W
      531 382 M
      GS
            0 SG
            /Helvetica FF [34 0 0 -34 0 0] MS
            (6) SH
      GR
   GR

% TEXT
NP
0 SG
   GS
      1 W
      306 432 M
      GS
            0 SG
            /Helvetica FF [34 0 0 -34 0 0] MS
            (7) SH
      GR
   GR

% TEXT
NP
0 SG
   GS
      1 W
      556 432 M
      GS
            0 SG
            /Helvetica FF [34 0 0 -34 0 0] MS
            (7) SH
      GR
   GR

% TEXT
NP
0 SG
   GS
      1 W
      372 382 M
      GS
            0 SG
            /Helvetica FF [34 0 0 -34 0 0] MS
            (15) SH
      GR
   GR

% TEXT
NP
0 SG
   GS
      1 W
      472 383 M
      GS
            0 SG
            /Helvetica FF [34 0 0 -34 0 0] MS
            (15) SH
      GR
   GR

% TEXT
NP
0 SG
   GS
      1 W
      422 382 M
      GS
            0 SG
            /Helvetica FF [34 0 0 -34 0 0] MS
            (20) SH
      GR
   GR

% TEXT
NP
0 SG
   GS
      1 W
      347 432 M
      GS
            0 SG
            /Helvetica FF [34 0 0 -34 0 0] MS
            (21) SH
      GR
   GR

% TEXT
NP
0 SG
   GS
      1 W
      397 432 M
      GS
            0 SG
            /Helvetica FF [34 0 0 -34 0 0] MS
            (35) SH
      GR
   GR

% TEXT
NP
0 SG
   GS
      1 W
      447 432 M
      GS
            0 SG
            /Helvetica FF [34 0 0 -34 0 0] MS
            (35) SH
      GR
   GR

% TEXT
NP
0 SG
   GS
      1 W
      497 432 M
      GS
            0 SG
            /Helvetica FF [34 0 0 -34 0 0] MS
            (21) SH
      GR
   GR

% POLY/OPEN-SPLINE
0.000 0.000 0.753 RG
GS
   NP
      541 173 M
      181 -277 atan DU cos 12.000 MU 264 exch SU
      exch sin 12.000 MU 354 exch SU L
   TGSM
   3 W
   S
   1 W
GR
GS
   TGSM
   NP
      264 354 12.000 5.000 -277 181 TGAT
   1 SG CP F
   0.000 0.000 0.753 RG
   NP
      264 354 12.000 5.000 -277 181 TGAT
   CP F
GR

% POLY/OPEN-SPLINE
0.000 0.000 0.753 RG
GS
   NP
      551 196 M
      202 -308 atan DU cos 12.000 MU 243 exch SU
      exch sin 12.000 MU 398 exch SU L
   TGSM
   3 W
   S
   1 W
GR
GS
   TGSM
   NP
      243 398 12.000 5.000 -308 202 TGAT
   1 SG CP F
   0.000 0.000 0.753 RG
   NP
      243 398 12.000 5.000 -308 202 TGAT
   CP F
GR

% POLY/OPEN-SPLINE
0.000 0.000 0.753 RG
GS
   NP
      563 220 M
      219 -334 atan DU cos 12.000 MU 229 exch SU
      exch sin 12.000 MU 439 exch SU L
   TGSM
   3 W
   S
   1 W
GR
GS
   TGSM
   NP
      229 439 12.000 5.000 -334 219 TGAT
   1 SG CP F
   0.000 0.000 0.753 RG
   NP
      229 439 12.000 5.000 -334 219 TGAT
   CP F
GR

% POLY/OPEN-SPLINE
0.000 0.000 0.753 RG
GS
   NP
      525 148 M
      147 -225 atan DU cos 12.000 MU 300 exch SU
      exch sin 12.000 MU 295 exch SU L
   TGSM
   3 W
   S
   1 W
GR
GS
   TGSM
   NP
      300 295 12.000 5.000 -225 147 TGAT
   1 SG CP F
   0.000 0.000 0.753 RG
   NP
      300 295 12.000 5.000 -225 147 TGAT
   CP F
GR

% POLY/OPEN-SPLINE
0.000 0.000 0.753 RG
GS
   NP
      513 120 M
      118 -181 atan DU cos 12.000 MU 332 exch SU
      exch sin 12.000 MU 238 exch SU L
   TGSM
   3 W
   S
   1 W
GR
GS
   TGSM
   NP
      332 238 12.000 5.000 -181 118 TGAT
   1 SG CP F
   0.000 0.000 0.753 RG
   NP
      332 238 12.000 5.000 -181 118 TGAT
   CP F
GR

% POLY/OPEN-SPLINE
0.000 0.000 0.753 RG
GS
   NP
      500 95 M
      95 -142 atan DU cos 12.000 MU 358 exch SU
      exch sin 12.000 MU 190 exch SU L
   TGSM
   3 W
   S
   1 W
GR
GS
   TGSM
   NP
      358 190 12.000 5.000 -142 95 TGAT
   1 SG CP F
   0.000 0.000 0.753 RG
   NP
      358 190 12.000 5.000 -142 95 TGAT
   CP F
GR

% POLY/OPEN-SPLINE
0.000 0.000 0.753 RG
GS
   NP
      487 70 M
      63 -96 atan DU cos 12.000 MU 391 exch SU
      exch sin 12.000 MU 133 exch SU L
   TGSM
   3 W
   S
   1 W
GR
GS
   TGSM
   NP
      391 133 12.000 5.000 -96 63 TGAT
   1 SG CP F
   0.000 0.000 0.753 RG
   NP
      391 133 12.000 5.000 -96 63 TGAT
   CP F
GR

% POLY/OPEN-SPLINE
0.000 0.000 0.753 RG
GS
   NP
      474 42 M
      45 -69 atan DU cos 12.000 MU 405 exch SU
      exch sin 12.000 MU 87 exch SU L
   TGSM
   3 W
   S
   1 W
GR
GS
   TGSM
   NP
      405 87 12.000 5.000 -69 45 TGAT
   1 SG CP F
   0.000 0.000 0.753 RG
   NP
      405 87 12.000 5.000 -69 45 TGAT
   CP F
GR

% TEXT
NP
0.000 0.000 0.753 RG
   GS
      1 W
      363 106 M
      GS
            0.000 0.000 0.753 RG
            /Helvetica-Bold FF [34 0 0 -34 0 0] MS
            (1) SH
      GR
   GR

% TEXT
NP
0.000 0.000 0.753 RG
   GS
      1 W
      338 155 M
      GS
            0.000 0.000 0.753 RG
            /Helvetica-Bold FF [34 0 0 -34 0 0] MS
            (1) SH
      GR
   GR

% TEXT
NP
0.000 0.000 0.753 RG
   GS
      1 W
      311 203 M
      GS
            0.000 0.000 0.753 RG
            /Helvetica-Bold FF [34 0 0 -34 0 0] MS
            (2) SH
      GR
   GR

% TEXT
NP
0.000 0.000 0.753 RG
   GS
      1 W
      287 254 M
      GS
            0.000 0.000 0.753 RG
            /Helvetica-Bold FF [34 0 0 -34 0 0] MS
            (3) SH
      GR
   GR

% TEXT
NP
0.000 0.000 0.753 RG
   GS
      1 W
      263 304 M
      GS
            0.000 0.000 0.753 RG
            /Helvetica-Bold FF [34 0 0 -34 0 0] MS
            (5) SH
      GR
   GR

% TEXT
NP
0.000 0.000 0.753 RG
   GS
      1 W
      236 362 M
      GS
            0.000 0.000 0.753 RG
            /Helvetica-Bold FF [34 0 0 -34 0 0] MS
            (8) SH
      GR
   GR

% TEXT
NP
0.000 0.000 0.753 RG
   GS
      1 W
      195 412 M
      GS
            0.000 0.000 0.753 RG
            /Helvetica-Bold FF [34 0 0 -34 0 0] MS
            (13) SH
      GR
   GR

% TEXT
NP
0.000 0.000 0.753 RG
   GS
      1 W
      178 458 M
      GS
            0.000 0.000 0.753 RG
            /Helvetica-Bold FF [34 0 0 -34 0 0] MS
            (21) SH
      GR
   GR

GR
tgifsavedpage restore
end
showpage

%%Trailer
%MatchingCreationDate: Wed Mar 11 15:45:11 2009
%%DocumentFonts: Helvetica-Bold
%%+ Helvetica
%%EOF
